…
```
## Joining with `by = join_by(state, year)`
## Joining with `by = join_by(psim_id, year)`
## Joining with `by = join_by(year)`
```

```r
combo %>% select(contains('Price'))
```

```
## # A tibble: 205,443 × 3
##    Price_dpbu Price_dpt Price_dpt_adj
##         <dbl>     <dbl>         <dbl>
##  1       1.72      67.7         101. 
##  2       1.75      68.9          99.7
##  3       1.9       74.8         105. 
##  4       2.22      87.4         121. 
##  5       2.37      93.3         126. 
##  6       1.99      78.3         103. 
##  7       1.94      76.4          97.5
##  8       3.03     119.          148. 
##  9       4.29     169.          203. 
## 10       4.1      161.          187. 
## # ℹ 205,433 more rows
```
…
