…
## other ways to report


* the average number of years that a site gets a subsidy
* the percent of locations that have a subsidy at least 2/20 years. 



```r
# annual subsidy
psim_subsidyWeather
```

```
## # A tibble: 205,443 × 11
##    psim_id state  year WT_Jul_m spei_ju1 gwSubsidy gwPenalty weather2_dry
##      <dbl> <chr> <dbl>    <dbl>    <dbl>     <dbl>     <dbl>        <dbl>
##  1   20672 IA     1999     1.71    NA            1        NA           NA
##  2   20672 IA     2000     2.51   -69.3         NA        NA            1
##  3   20672 IA     2001     1.65   -53.8          1        NA            1
##  4   20672 IA     2002     2.37  -115.           1        NA            1
##  5   20672 IA     2003     1.81   -79.4          1        NA            1
##  6   20672 IA     2004     2.02    -3.24         1        NA           NA
##  7   20672 IA     2005     1.67   -77.9          1        NA            1
##  8   20672 IA     2006     2.10  -176.           1        NA            1
##  9   20672 IA     2007     2.26  -154.           1        NA            1
## 10   20672 IA     2008     1.66   -94.0          1        NA            1
## # ℹ 205,433 more rows
## # ℹ 3 more variables: weather3_xDry <dbl>, subsidy2 <dbl>, subsidy3 <dbl>
```

```r
# times by grid
psim_subsidyFreq
```

```
## # A tibble: 12,063 × 4
##    psim_id state subsidy2 subsidy3
##      <dbl> <chr>    <dbl>    <dbl>
##  1    3227 MN           1        0
##  2    3230 MN           1        0
##  3    3491 MN           2        0
##  4    3494 MN           3        0
##  5    3495 MN           0        0
##  6    3756 MN           1        0
##  7    3759 MN           1        0
##  8    3765 MN           1        0
##  9    3766 MN           1        0
## 10    4020 MN           1        0
## # ℹ 12,053 more rows
```
…
